{
	"info": {
		"_postman_id": "99f665f0-67ee-4362-b1fe-db1827ae1fbb",
		"name": "API_Revendeurs",
		"schema": "https://schema.getpostman.com/json/collection/v2.1.0/collection.json"
	},
	"item": [
		{
			"name": "S'inscrire en tant que Revendeur",
			"request": {
				"method": "POST",
				"header": [
					{
						"key": "Content-Type",
						"value": "application/json",
						"type": "default"
					}
				],
				"body": {
					"mode": "raw",
					"raw": "{\r\n    \"username\": \"Test5\",\r\n    \"email\": \"alexandre.gablin@ecoles-epsi.net\"\r\n}"
				},
				"url": {
					"raw": "{{baseUrlRevendeurs}}/inscription",
					"host": [
						"{{baseUrlRevendeurs}}"
					],
					"path": [
						"inscription"
					]
				}
			},
			"response": []
		},
		{
			"name": "Récupérer la liste des produits Copy",
			"request": {
				"auth": {
					"type": "bearer",
					"bearer": [
						{
							"key": "token",
							"value": "{{token}}",
							"type": "string"
						}
					]
				},
				"method": "GET",
				"header": [],
				"url": {
					"raw": "{{baseUrlRevendeurs}}/products",
					"host": [
						"{{baseUrlRevendeurs}}"
					],
					"path": [
						"products"
					]
				}
			},
			"response": []
		},
		{
			"name": "Récupérer les infos d'un produit ayant un id spécifique Copy",
			"protocolProfileBehavior": {
				"disabledSystemHeaders": {
					"accept": true
				}
			},
			"request": {
				"auth": {
					"type": "bearer",
					"bearer": [
						{
							"key": "token",
							"value": "{{token}}",
							"type": "string"
						}
					]
				},
				"method": "GET",
				"header": [
					{
						"key": "Accept",
						"value": "application/json",
						"type": "default"
					}
				],
				"url": {
					"raw": "{{baseUrlRevendeurs}}/products/:id",
					"host": [
						"{{baseUrlRevendeurs}}"
					],
					"path": [
						"products",
						":id"
					],
					"variable": [
						{
							"key": "id",
							"value": "2",
							"description": "l'id du produit à récupérer"
						}
					]
				}
			},
			"response": []
		}
	]
}